Introduction to R
…
select()

library(dplyr)
select(penguins, species, island, sex, body_mass_g)

# A tibble: 344 × 4
  species island    sex    body_mass_g
  <fct>   <fct>     <fct>        <int>
1 Adelie  Torgersen male          3750
2 Adelie  Torgersen female        3800
3 Adelie  Torgersen female        3250
# … with 341 more rows

select(penguins, 1:4)

# A tibble: 344 × 4
  species island    bill_length_mm bill_depth_mm
  <fct>   <fct>              <dbl>         <dbl>
1 Adelie  Torgersen           39.1          18.7
2 Adelie  Torgersen           39.5          17.4
3 Adelie  Torgersen           40.3          18  
# … with 341 more rows

select(penguins, bill_length_mm:body_mass_g)

# A tibble: 344 × 4
  bill_length_mm bill_depth_mm flipper_length_mm body_mass_g
           <dbl>         <dbl>             <int>       <int>
1           39.1          18.7               181        3750
2           39.5          17.4               186        3800
3           40.3          18                 195        3250
# … with 341 more rows

arrange()

arrange(penguins, bill_length_mm)

# A tibble: 344 × 8
  species island    bill_length_mm bill_depth_mm flipper_l…¹ body_…² sex    year
  <fct>   <fct>              <dbl>         <dbl>       <int>   <int> <fct> <int>
1 Adelie  Dream               32.1          15.5         188    3050 fema…  2009
2 Adelie  Dream               33.1          16.1         178    2900 fema…  2008
3 Adelie  Torgersen           33.5          19           190    3600 fema…  2008
# … with 341 more rows, and abbreviated variable names ¹​flipper_length_mm,
#   ²​body_mass_g

arrange(penguins, species)

# A tibble: 344 × 8
  species island    bill_length_mm bill_depth_mm flipper_l…¹ body_…² sex    year
  <fct>   <fct>              <dbl>         <dbl>       <int>   <int> <fct> <int>
1 Adelie  Torgersen           39.1          18.7         181    3750 male   2007
2 Adelie  Torgersen           39.5          17.4         186    3800 fema…  2007
3 Adelie  Torgersen           40.3          18           195    3250 fema…  2007
# … with 341 more rows, and abbreviated variable names ¹​flipper_length_mm,
#   ²​body_mass_g

arrange(penguins, desc(bill_length_mm))

# A tibble: 344 × 8
  species   island bill_length_mm bill_depth_mm flipper_le…¹ body_…² sex    year
  <fct>     <fct>           <dbl>         <dbl>        <int>   <int> <fct> <int>
1 Gentoo    Biscoe           59.6          17            230    6050 male   2007
2 Chinstrap Dream            58            17.8          181    3700 fema…  2007
3 Gentoo    Biscoe           55.9          17            228    5600 male   2009
# … with 341 more rows, and abbreviated variable names ¹​flipper_length_mm,
#   ²​body_mass_g

rename()

rename(penguins, Sex = sex)

# A tibble: 344 × 8
  species island    bill_length_mm bill_depth_mm flipper_l…¹ body_…² Sex    year
  <fct>   <fct>              <dbl>         <dbl>       <int>   <int> <fct> <int>
1 Adelie  Torgersen           39.1          18.7         181    3750 male   2007
2 Adelie  Torgersen           39.5          17.4         186    3800 fema…  2007
3 Adelie  Torgersen           40.3          18           195    3250 fema…  2007
# … with 341 more rows, and abbreviated variable names ¹​flipper_length_mm,
#   ²​body_mass_g

rename(penguins, genus = species, isle = island)

# A tibble: 344 × 8
  genus  isle      bill_length_mm bill_depth_mm flipper_le…¹ body_…² sex    year
  <fct>  <fct>              <dbl>         <dbl>        <int>   <int> <fct> <int>
1 Adelie Torgersen           39.1          18.7          181    3750 male   2007
2 Adelie Torgersen           39.5          17.4          186    3800 fema…  2007
3 Adelie Torgersen           40.3          18            195    3250 fema…  2007
# … with 341 more rows, and abbreviated variable names ¹​flipper_length_mm,
#   ²​body_mass_g

filter()

filter(penguins, sex == "female")

# A tibble: 165 × 8
  species island    bill_length_mm bill_depth_mm flipper_l…¹ body_…² sex    year
  <fct>   <fct>              <dbl>         <dbl>       <int>   <int> <fct> <int>
1 Adelie  Torgersen           39.5          17.4         186    3800 fema…  2007
2 Adelie  Torgersen           40.3          18           195    3250 fema…  2007
3 Adelie  Torgersen           36.7          19.3         193    3450 fema…  2007
# … with 162 more rows, and abbreviated variable names ¹​flipper_length_mm,
#   ²​body_mass_g

filter(penguins, body_mass_g > 4800)

# A tibble: 81 × 8
  species island bill_length_mm bill_depth_mm flipper_leng…¹ body_…² sex    year
  <fct>   <fct>           <dbl>         <dbl>          <int>   <int> <fct> <int>
1 Gentoo  Biscoe           50            16.3            230    5700 male   2007
2 Gentoo  Biscoe           50            15.2            218    5700 male   2007
3 Gentoo  Biscoe           47.6          14.5            215    5400 male   2007
# … with 78 more rows, and abbreviated variable names ¹​flipper_length_mm,
#   ²​body_mass_g

filter(penguins, sex == "female", body_mass_g >= 4800)

# A tibble: 22 × 8
  species island bill_length_mm bill_depth_mm flipper_leng…¹ body_…² sex    year
  <fct>   <fct>           <dbl>         <dbl>          <int>   <int> <fct> <int>
1 Gentoo  Biscoe           45.4          14.6            211    4800 fema…  2007
2 Gentoo  Biscoe           46.2          14.5            209    4800 fema…  2007
3 Gentoo  Biscoe           45.1          14.5            215    5000 fema…  2007
# … with 19 more rows, and abbreviated variable names ¹​flipper_length_mm,
#   ²​body_mass_g

filter()

filter(penguins, is.na(bill_length_mm))

# A tibble: 2 × 8
  species island    bill_length_mm bill_depth_mm flipper_l…¹ body_…² sex    year
  <fct>   <fct>              <dbl>         <dbl>       <int>   <int> <fct> <int>
1 Adelie  Torgersen             NA            NA          NA      NA <NA>   2007
2 Gentoo  Biscoe                NA            NA          NA      NA <NA>   2009
# … with abbreviated variable names ¹​flipper_length_mm, ²​body_mass_g

filter(penguins, !is.na(bill_length_mm))

# A tibble: 342 × 8
  species island    bill_length_mm bill_depth_mm flipper_l…¹ body_…² sex    year
  <fct>   <fct>              <dbl>         <dbl>       <int>   <int> <fct> <int>
1 Adelie  Torgersen           39.1          18.7         181    3750 male   2007
2 Adelie  Torgersen           39.5          17.4         186    3800 fema…  2007
3 Adelie  Torgersen           40.3          18           195    3250 fema…  2007
# … with 339 more rows, and abbreviated variable names ¹​flipper_length_mm,
#   ²​body_mass_g

filter()

filter(penguins, island == "Biscoe" | island == "Dream")

# A tibble: 292 × 8
  species island bill_length_mm bill_depth_mm flipper_leng…¹ body_…² sex    year
  <fct>   <fct>           <dbl>         <dbl>          <int>   <int> <fct> <int>
1 Adelie  Biscoe           37.8          18.3            174    3400 fema…  2007
2 Adelie  Biscoe           37.7          18.7            180    3600 male   2007
3 Adelie  Biscoe           35.9          19.2            189    3800 fema…  2007
# … with 289 more rows, and abbreviated variable names ¹​flipper_length_mm,
#   ²​body_mass_g

filter(penguins, island %in% c("Biscoe", "Dream"))

# A tibble: 292 × 8
  species island bill_length_mm bill_depth_mm flipper_leng…¹ body_…² sex    year
  <fct>   <fct>           <dbl>         <dbl>          <int>   <int> <fct> <int>
1 Adelie  Biscoe           37.8          18.3            174    3400 fema…  2007
2 Adelie  Biscoe           37.7          18.7            180    3600 male   2007
3 Adelie  Biscoe           35.9          19.2            189    3800 fema…  2007
# … with 289 more rows, and abbreviated variable names ¹​flipper_length_mm,
#   ²​body_mass_g

filter(penguins, !island %in% c("Biscoe", "Dream"))

# A tibble: 52 × 8
  species island    bill_length_mm bill_depth_mm flipper_l…¹ body_…² sex    year
  <fct>   <fct>              <dbl>         <dbl>       <int>   <int> <fct> <int>
1 Adelie  Torgersen           39.1          18.7         181    3750 male   2007
2 Adelie  Torgersen           39.5          17.4         186    3800 fema…  2007
3 Adelie  Torgersen           40.3          18           195    3250 fema…  2007
# … with 49 more rows, and abbreviated variable names ¹​flipper_length_mm,
#   ²​body_mass_g

filter() with string helpers

library(stringr)

filter(penguins, str_detect(island, "ger"))

# A tibble: 52 × 8
  species island    bill_length_mm bill_depth_mm flipper_l…¹ body_…² sex    year
  <fct>   <fct>              <dbl>         <dbl>       <int>   <int> <fct> <int>
1 Adelie  Torgersen           39.1          18.7         181    3750 male   2007
2 Adelie  Torgersen           39.5          17.4         186    3800 fema…  2007
3 Adelie  Torgersen           40.3          18           195    3250 fema…  2007
# … with 49 more rows, and abbreviated variable names ¹​flipper_length_mm,
#   ²​body_mass_g

filter(penguins, str_length(species) == 6)

# A tibble: 276 × 8
  species island    bill_length_mm bill_depth_mm flipper_l…¹ body_…² sex    year
  <fct>   <fct>              <dbl>         <dbl>       <int>   <int> <fct> <int>
1 Adelie  Torgersen           39.1          18.7         181    3750 male   2007
2 Adelie  Torgersen           39.5          17.4         186    3800 fema…  2007
3 Adelie  Torgersen           40.3          18           195    3250 fema…  2007
# … with 273 more rows, and abbreviated variable names ¹​flipper_length_mm,
#   ²​body_mass_g

mutate()

mutate(penguins, body_mass_lb = body_mass_g/453.6)

# A tibble: 344 × 9
  species island    bill_length_mm bill_de…¹ flipp…² body_…³ sex    year body_…⁴
  <fct>   <fct>              <dbl>     <dbl>   <int>   <int> <fct> <int>   <dbl>
1 Adelie  Torgersen           39.1      18.7     181    3750 male   2007    8.27
2 Adelie  Torgersen           39.5      17.4     186    3800 fema…  2007    8.38
3 Adelie  Torgersen           40.3      18       195    3250 fema…  2007    7.16
# … with 341 more rows, and abbreviated variable names ¹​bill_depth_mm,
#   ²​flipper_length_mm, ³​body_mass_g, ⁴​body_mass_lb

usa_penguins <- mutate(
  penguins, 
  body_mass_lb = body_mass_g/453.6, 
  flipper_length_in = flipper_length_mm/25.4
  )

select(usa_penguins, species, body_mass_lb, flipper_length_in)

# A tibble: 344 × 3
  species body_mass_lb flipper_length_in
  <fct>          <dbl>             <dbl>
1 Adelie          8.27              7.13
2 Adelie          8.38              7.32
3 Adelie          7.16              7.68
# … with 341 more rows

mutate() with helpers

If you need to specify only one condition, use if_else(). Otherwise, use case_when().

mutate(penguins, body_mass_g = if_else(island == "Biscoe", body_mass_g - 50, body_mass_g))

# A tibble: 344 × 8
  species island    bill_length_mm bill_depth_mm flipper_l…¹ body_…² sex    year
  <fct>   <fct>              <dbl>         <dbl>       <int>   <dbl> <fct> <int>
1 Adelie  Torgersen           39.1          18.7         181    3750 male   2007
2 Adelie  Torgersen           39.5          17.4         186    3800 fema…  2007
3 Adelie  Torgersen           40.3          18           195    3250 fema…  2007
# … with 341 more rows, and abbreviated variable names ¹​flipper_length_mm,
#   ²​body_mass_g

new_measurements <- mutate(penguins, new_body_mass_g = case_when(
  island == "Biscoe" ~ body_mass_g - 50,
  island == "Dream" ~ body_mass_g - 75,
  island == "Torgersen" ~ body_mass_g - 100
  )
)
select(new_measurements, island, body_mass_g, new_body_mass_g)

# A tibble: 344 × 3
  island    body_mass_g new_body_mass_g
  <fct>           <int>           <dbl>
1 Torgersen        3750            3650
2 Torgersen        3800            3700
3 Torgersen        3250            3150
# … with 341 more rows

mutate() with string helpers

penguins_with_ids <- mutate(penguins, id = paste(island, species, sex, year, sep = "-"))
select(penguins_with_ids, island, species, sex, year, id)

# A tibble: 344 × 5
  island    species sex     year id                          
  <fct>     <fct>   <fct>  <int> <chr>                       
1 Torgersen Adelie  male    2007 Torgersen-Adelie-male-2007  
2 Torgersen Adelie  female  2007 Torgersen-Adelie-female-2007
3 Torgersen Adelie  female  2007 Torgersen-Adelie-female-2007
# … with 341 more rows

mutate(penguins, sex = str_sub(sex, start = 1, end = 1))

# A tibble: 344 × 8
  species island    bill_length_mm bill_depth_mm flipper_l…¹ body_…² sex    year
  <fct>   <fct>              <dbl>         <dbl>       <int>   <int> <chr> <int>
1 Adelie  Torgersen           39.1          18.7         181    3750 m      2007
2 Adelie  Torgersen           39.5          17.4         186    3800 f      2007
3 Adelie  Torgersen           40.3          18           195    3250 f      2007
# … with 341 more rows, and abbreviated variable names ¹​flipper_length_mm,
#   ²​body_mass_g

mutate(penguins, sex = str_to_title(sex))

# A tibble: 344 × 8
  species island    bill_length_mm bill_depth_mm flipper_l…¹ body_…² sex    year
  <fct>   <fct>              <dbl>         <dbl>       <int>   <int> <chr> <int>
1 Adelie  Torgersen           39.1          18.7         181    3750 Male   2007
2 Adelie  Torgersen           39.5          17.4         186    3800 Fema…  2007
3 Adelie  Torgersen           40.3          18           195    3250 Fema…  2007
# … with 341 more rows, and abbreviated variable names ¹​flipper_length_mm,
#   ²​body_mass_g
…
penguins_2007 <- penguins %>% filter(year == 2007)
penguins_2008 <- penguins %>% filter(year == 2008)
nrow(penguins_2007)

[1] 110

nrow(penguins_2008)

[1] 114

all_penguins <- bind_rows(penguins_2007, penguins_2008)
all_penguins

# A tibble: 224 × 8
  species island    bill_length_mm bill_depth_mm flipper_l…¹ body_…² sex    year
  <fct>   <fct>              <dbl>         <dbl>       <int>   <int> <fct> <int>
1 Adelie  Torgersen           39.1          18.7         181    3750 male   2007
2 Adelie  Torgersen           39.5          17.4         186    3800 fema…  2007
3 Adelie  Torgersen           40.3          18           195    3250 fema…  2007
4 Adelie  Torgersen           NA            NA            NA      NA <NA>   2007
5 Adelie  Torgersen           36.7          19.3         193    3450 fema…  2007
6 Adelie  Torgersen           39.3          20.6         190    3650 male   2007
7 Adelie  Torgersen           38.9          17.8         181    3625 fema…  2007
8 Adelie  Torgersen           39.2          19.6         195    4675 male   2007
# … with 216 more rows, and abbreviated variable names ¹​flipper_length_mm,
#   ²​body_mass_g
…
relig_income %>% 
  pivot_longer(
    cols = 2:11,
    names_to = "income",
    values_to = "count"
  )

# A tibble: 180 × 3
  religion income    count
  <chr>    <chr>     <dbl>
1 Agnostic <$10k        27
2 Agnostic $10-20k      34
3 Agnostic $20-30k      60
4 Agnostic $30-40k      81
5 Agnostic $40-50k      76
6 Agnostic $50-75k     137
7 Agnostic $75-100k    122
8 Agnostic $100-150k   109
# … with 172 more rows
…
